{
  "shell_port": 54373,
  "iopub_port": 41949,
  "stdin_port": 34213,
  "control_port": 35569,
  "hb_port": 42755,
  "ip": "127.0.0.1",
  "key": "fbfc2308-c06e911dd2694e129a3c03a9",
  "transport": "tcp",
  "signature_scheme": "hmac-sha256",
  "kernel_name": ""
}