{
  "shell_port": 32869,
  "iopub_port": 39101,
  "stdin_port": 53661,
  "control_port": 34599,
  "hb_port": 34533,
  "ip": "127.0.0.1",
  "key": "bd3dc0bf-61ba9f9bcc74ad08bf211a3b",
  "transport": "tcp",
  "signature_scheme": "hmac-sha256",
  "kernel_name": ""
}